Quick start guide
…
Let’s use the Selvin dataset, quoted by the epitools
package (Selvin, 2004).

dth40 <- c(45, 201, 320, 670, 1126, 3160, 9723, 17935,
22179, 13461, 2238)

pop40 <- c(906897, 3794573, 10003544, 10629526, 9465330,
8249558, 7294330, 5022499, 2920220, 1019504, 142532)

The tidyrates present the same dataset in a tidy
way.

selvin_data_1940
#> # A tibble: 22 × 3
#>    age_group name   value
#>    <chr>     <chr>  <dbl>
#>  1 <1        events    45
#>  2 1-4       events   201
#>  3 5-14      events   320
#>  4 15-24     events   670
#>  5 25-34     events  1126
#>  6 35-44     events  3160
#>  7 45-54     events  9723
#>  8 55-64     events 17935
#>  9 65-74     events 22179
#> 10 75-84     events 13461
#> # ℹ 12 more rows

Events and population reference data

dth60 <- c(141, 926, 1253, 1080, 1869, 4891, 14956, 30888,
41725, 26501, 5928)

pop60 <- c(1784033, 7065148, 15658730, 10482916, 9939972,
10563872, 9114202, 6850263, 4702482, 1874619, 330915)

The tidyrates present the same dataset in a tidy
way.

selvin_data_1960
#> # A tibble: 22 × 3
#>    age_group name   value
#>    <chr>     <chr>  <dbl>
#>  1 <1        events   141
#>  2 1-4       events   926
#>  3 5-14      events  1253
#>  4 15-24     events  1080
#>  5 25-34     events  1869
#>  6 35-44     events  4891
#>  7 45-54     events 14956
#>  8 55-64     events 30888
#>  9 65-74     events 41725
#> 10 75-84     events 26501
#> # ℹ 12 more rows
…
